The Tidyverse for Archaeologists
…
```r
library(rio)  

# read in the data
j_data <- import("https://bit.ly/j_data_xlsx", setclass = "tbl_df")  

# take a look
*j_data
```
]
 
.right-output-import-auto[

```
# A tibble: 9,752 x 48
   Site  Square  Spit Group Artno Material Colour Weight Length Artclas Cortex
   <chr> <chr>  <dbl> <dbl> <dbl> <chr>    <chr>   <dbl>  <dbl> <chr>    <dbl>
 1 J     B          1     1     1 Chert    Brown   1.83   22.0  Flake        0
 2 J     B          1     1     2 Chert    Yellow  0.61   14.6  RetF         0
 3 J     B          1     1     3 Chert    Dk Gr…  3.81   29.6  Core         0
 4 J     B          1     1     4 Chert    Grey    0.13    5.83 RetFrag      0
 5 J     B          1     1     5 Chert    Grey    0.05    7.07 Flake        0
 6 J     B          1     1     6 Chert    Lt Br…  0.580  11.1  Core        NA
 7 J     B          1     1     7 Chert    Dk Br…  0.03    5.72 Flake        0
 8 J     B          1     1     8 Chert    Cream   0.02    8.37 FFrag        0
 9 J     B          1     1     9 Chert    Grey    0.21   10.7  Flake-b      0
10 J     B          1     1    10 Chert    Grey    0.25   14.3  Flake        0
# … with 9,742 more rows, and 37 more variables: Cortype <chr>, Initiat <chr>,
#   Breaks <chr>, Noseg <dbl>, Platwid <dbl>, Plat <chr>, Focal <lgl>,
#   Overhang <chr>, NoDS <dbl>, NoPS <dbl>, Rtch <chr>, Plat_2 <chr>,
#   Focal_2 <lgl>, Overhang_2 <chr>, NoDS_2 <dbl>, NoPS_2 <dbl>, Rtch_2 <chr>,
#   RetOri <chr>, Retype <chr>, Retloc <chr>, Retlen <dbl>, Retdep <dbl>,
#   Portion <chr>, Heat <dbl>, EdgeDam <dbl>, Weathering <dbl>, Corerot <dbl>,
#   RetScNo <dbl>, Term <chr>, Janus <lgl>, Recycled <lgl>, Redirect <lgl>,
#   Width <dbl>, Thick <dbl>, Platthic <dbl>, area <dbl>, elongation <dbl>
```
…
.left-code-dplyr1-auto[

```r
library(tidyverse)  
# `select` helps us
# choose columns
*j_data   # say 'then'
```
]
 
.right-output-dplyr1-auto[

```
# A tibble: 9,752 x 48
   Site  Square  Spit Group Artno Material Colour Weight Length Artclas Cortex
   <chr> <chr>  <dbl> <dbl> <dbl> <chr>    <chr>   <dbl>  <dbl> <chr>    <dbl>
 1 J     B          1     1     1 Chert    Brown   1.83   22.0  Flake        0
 2 J     B          1     1     2 Chert    Yellow  0.61   14.6  RetF         0
 3 J     B          1     1     3 Chert    Dk Gr…  3.81   29.6  Core         0
 4 J     B          1     1     4 Chert    Grey    0.13    5.83 RetFrag      0
 5 J     B          1     1     5 Chert    Grey    0.05    7.07 Flake        0
 6 J     B          1     1     6 Chert    Lt Br…  0.580  11.1  Core        NA
 7 J     B          1     1     7 Chert    Dk Br…  0.03    5.72 Flake        0
 8 J     B          1     1     8 Chert    Cream   0.02    8.37 FFrag        0
 9 J     B          1     1     9 Chert    Grey    0.21   10.7  Flake-b      0
10 J     B          1     1    10 Chert    Grey    0.25   14.3  Flake        0
# … with 9,742 more rows, and 37 more variables: Cortype <chr>, Initiat <chr>,
#   Breaks <chr>, Noseg <dbl>, Platwid <dbl>, Plat <chr>, Focal <lgl>,
#   Overhang <chr>, NoDS <dbl>, NoPS <dbl>, Rtch <chr>, Plat_2 <chr>,
#   Focal_2 <lgl>, Overhang_2 <chr>, NoDS_2 <dbl>, NoPS_2 <dbl>, Rtch_2 <chr>,
#   RetOri <chr>, Retype <chr>, Retloc <chr>, Retlen <dbl>, Retdep <dbl>,
#   Portion <chr>, Heat <dbl>, EdgeDam <dbl>, Weathering <dbl>, Corerot <dbl>,
#   RetScNo <dbl>, Term <chr>, Janus <lgl>, Recycled <lgl>, Redirect <lgl>,
#   Width <dbl>, Thick <dbl>, Platthic <dbl>, area <dbl>, elongation <dbl>
```
…
```r
library(tidyverse)  
# `select` helps us
# choose columns
j_data %>%  # say 'then'
* select(Square,
*        Spit,
*        Weight)
```
]
 
.right-output-dplyr1-auto[

```
# A tibble: 9,752 x 3
   Square  Spit Weight
   <chr>  <dbl>  <dbl>
 1 B          1  1.83 
 2 B          1  0.61 
 3 B          1  3.81 
 4 B          1  0.13 
 5 B          1  0.05 
 6 B          1  0.580
 7 B          1  0.03 
 8 B          1  0.02 
 9 B          1  0.21 
10 B          1  0.25 
# … with 9,742 more rows
```
…
# `select` can use
# rules to save time
*j_data   # say 'then'
```
]
 
.right-output-dplyr1-auto[

```
# A tibble: 9,752 x 3
   Square  Spit Weight
   <chr>  <dbl>  <dbl>
 1 B          1  1.83 
 2 B          1  0.61 
 3 B          1  3.81 
 4 B          1  0.13 
 5 B          1  0.05 
 6 B          1  0.580
 7 B          1  0.03 
 8 B          1  0.02 
 9 B          1  0.21 
10 B          1  0.25 
# … with 9,742 more rows
```

```
# A tibble: 9,752 x 48
   Site  Square  Spit Group Artno Material Colour Weight Length Artclas Cortex
   <chr> <chr>  <dbl> <dbl> <dbl> <chr>    <chr>   <dbl>  <dbl> <chr>    <dbl>
 1 J     B          1     1     1 Chert    Brown   1.83   22.0  Flake        0
 2 J     B          1     1     2 Chert    Yellow  0.61   14.6  RetF         0
 3 J     B          1     1     3 Chert    Dk Gr…  3.81   29.6  Core         0
 4 J     B          1     1     4 Chert    Grey    0.13    5.83 RetFrag      0
 5 J     B          1     1     5 Chert    Grey    0.05    7.07 Flake        0
 6 J     B          1     1     6 Chert    Lt Br…  0.580  11.1  Core        NA
 7 J     B          1     1     7 Chert    Dk Br…  0.03    5.72 Flake        0
 8 J     B          1     1     8 Chert    Cream   0.02    8.37 FFrag        0
 9 J     B          1     1     9 Chert    Grey    0.21   10.7  Flake-b      0
10 J     B          1     1    10 Chert    Grey    0.25   14.3  Flake        0
# … with 9,742 more rows, and 37 more variables: Cortype <chr>, Initiat <chr>,
#   Breaks <chr>, Noseg <dbl>, Platwid <dbl>, Plat <chr>, Focal <lgl>,
#   Overhang <chr>, NoDS <dbl>, NoPS <dbl>, Rtch <chr>, Plat_2 <chr>,
#   Focal_2 <lgl>, Overhang_2 <chr>, NoDS_2 <dbl>, NoPS_2 <dbl>, Rtch_2 <chr>,
#   RetOri <chr>, Retype <chr>, Retloc <chr>, Retlen <dbl>, Retdep <dbl>,
#   Portion <chr>, Heat <dbl>, EdgeDam <dbl>, Weathering <dbl>, Corerot <dbl>,
#   RetScNo <dbl>, Term <chr>, Janus <lgl>, Recycled <lgl>, Redirect <lgl>,
#   Width <dbl>, Thick <dbl>, Platthic <dbl>, area <dbl>, elongation <dbl>
```
…
# `select` can use
# rules to save time
j_data %>%  # say 'then'
* select_if(is.numeric)
```
]
 
.right-output-dplyr1-auto[

```
# A tibble: 9,752 x 3
   Square  Spit Weight
   <chr>  <dbl>  <dbl>
 1 B          1  1.83 
 2 B          1  0.61 
 3 B          1  3.81 
 4 B          1  0.13 
 5 B          1  0.05 
 6 B          1  0.580
 7 B          1  0.03 
 8 B          1  0.02 
 9 B          1  0.21 
10 B          1  0.25 
# … with 9,742 more rows
```

```
# A tibble: 9,752 x 24
    Spit Group Artno Weight Length Cortex Noseg Platwid  NoDS  NoPS NoDS_2
   <dbl> <dbl> <dbl>  <dbl>  <dbl>  <dbl> <dbl>   <dbl> <dbl> <dbl>  <dbl>
 1     1     1     1  1.83   22.0       0    NA   20.3      5     2      5
 2     1     1     2  0.61   14.6       0     3   11.0      5     3      5
 3     1     1     3  3.81   29.6       0    NA   NA       10    NA     10
 4     1     1     4  0.13    5.83      0     1   NA        2    NA      2
 5     1     1     5  0.05    7.07      0    NA    6.05     3     2      3
 6     1     1     6  0.580  11.1      NA    NA   NA       11    NA     11
 7     1     1     7  0.03    5.72      0    NA    2.91     3     1      3
 8     1     1     8  0.02    8.37      0    NA   NA        1    NA      1
 9     1     1     9  0.21   10.7       0    NA   NA        3    NA      3
10     1     1    10  0.25   14.3       0    NA    3.78     5     1      5
# … with 9,742 more rows, and 13 more variables: NoPS_2 <dbl>, Retlen <dbl>,
#   Retdep <dbl>, Heat <dbl>, EdgeDam <dbl>, Weathering <dbl>, Corerot <dbl>,
#   RetScNo <dbl>, Width <dbl>, Thick <dbl>, Platthic <dbl>, area <dbl>,
#   elongation <dbl>
```
…
# take a look
*j_data1
```
]
 
.right-output-ggplot1a-auto[

```
# A tibble: 9,752 x 5
   Square  Spit Material Weight Thick
   <chr>  <dbl> <chr>     <dbl> <dbl>
 1 B          1 Chert     1.83   3.34
 2 B          1 Chert     0.61   2.74
 3 B          1 Chert     3.81   7.25
 4 B          1 Chert     0.13   2.05
 5 B          1 Chert     0.05   1.13
 6 B          1 Chert     0.580  4.79
 7 B          1 Chert     0.03   1.16
 8 B          1 Chert     0.02   1.09
 9 B          1 Chert     0.21   3.91
10 B          1 Chert     0.25   3.13
# … with 9,742 more rows
```
…
.left-code-dplyr2-auto[

```r
# `filter` helps us
# choose rows
*j_data1
```
]
 
.right-output-dplyr2-auto[

```
# A tibble: 9,752 x 5
   Square  Spit Material Weight Thick
   <chr>  <dbl> <chr>     <dbl> <dbl>
 1 B          1 Chert     1.83   3.34
 2 B          1 Chert     0.61   2.74
 3 B          1 Chert     3.81   7.25
 4 B          1 Chert     0.13   2.05
 5 B          1 Chert     0.05   1.13
 6 B          1 Chert     0.580  4.79
 7 B          1 Chert     0.03   1.16
 8 B          1 Chert     0.02   1.09
 9 B          1 Chert     0.21   3.91
10 B          1 Chert     0.25   3.13
# … with 9,742 more rows
```
…
.left-code-dplyr2-auto[

```r
# `filter` helps us
# choose rows
j_data1 %>%  
# is equivalent to...
* filter(Square == "A")
```
]
 
.right-output-dplyr2-auto[

```
# A tibble: 4,436 x 5
   Square  Spit Material Weight Thick
   <chr>  <dbl> <chr>     <dbl> <dbl>
 1 A          1 Chert      1.74  4.37
 2 A          1 Chert      1.64  4.09
 3 A          1 Obsidian   0.12  1.41
 4 A          1 Chert      2.12  5.96
 5 A          1 Chert      2.25  7.62
 6 A          1 Chert      4.88  8.97
 7 A          1 Chert      8.95 16.0 
 8 A          1 Chert      3.02  8.15
 9 A          1 Chert      2.71  6.44
10 A          1 Chert      1.31  5.84
# … with 4,426 more rows
```
…
```r
# `filter` helps us
# choose rows
j_data1 %>%  
# is equivalent to...
  filter(Square == "A") %>%  
# is less than...
* filter(Weight < 10)
```
]
 
.right-output-dplyr2-auto[

```
# A tibble: 4,416 x 5
   Square  Spit Material Weight Thick
   <chr>  <dbl> <chr>     <dbl> <dbl>
 1 A          1 Chert      1.74  4.37
 2 A          1 Chert      1.64  4.09
 3 A          1 Obsidian   0.12  1.41
 4 A          1 Chert      2.12  5.96
 5 A          1 Chert      2.25  7.62
 6 A          1 Chert      4.88  8.97
 7 A          1 Chert      8.95 16.0 
 8 A          1 Chert      3.02  8.15
 9 A          1 Chert      2.71  6.44
10 A          1 Chert      1.31  5.84
# … with 4,406 more rows
```
…
.right-output-dplyr2-auto[

```
# A tibble: 4,392 x 5
   Square  Spit Material Weight Thick
   <chr>  <dbl> <chr>     <dbl> <dbl>
 1 A          1 Chert      1.74  4.37
 2 A          1 Chert      1.64  4.09
 3 A          1 Obsidian   0.12  1.41
 4 A          1 Chert      2.12  5.96
 5 A          1 Chert      2.25  7.62
 6 A          1 Chert      4.88  8.97
 7 A          1 Chert      8.95 16.0 
 8 A          1 Chert      3.02  8.15
 9 A          1 Chert      2.71  6.44
10 A          1 Chert      1.31  5.84
# … with 4,382 more rows
```
…
.right-output-dplyr2-auto[

```
# A tibble: 4,392 x 5
   Square  Spit Material Weight Thick
   <chr>  <dbl> <chr>     <dbl> <dbl>
 1 A          1 Chert      1.74  4.37
 2 A          1 Chert      1.64  4.09
 3 A          1 Obsidian   0.12  1.41
 4 A          1 Chert      2.12  5.96
 5 A          1 Chert      2.25  7.62
 6 A          1 Chert      4.88  8.97
 7 A          1 Chert      8.95 16.0 
 8 A          1 Chert      3.02  8.15
 9 A          1 Chert      2.71  6.44
10 A          1 Chert      1.31  5.84
# … with 4,382 more rows
```
…
.left-code-dplyr3-auto[

```r
# `mutate` helps us
# change columns
*j_data
```
]
 
.right-output-dplyr3-auto[

```
# A tibble: 9,752 x 48
   Site  Square  Spit Group Artno Material Colour Weight Length Artclas Cortex
   <chr> <chr>  <dbl> <dbl> <dbl> <chr>    <chr>   <dbl>  <dbl> <chr>    <dbl>
 1 J     B          1     1     1 Chert    Brown   1.83   22.0  Flake        0
 2 J     B          1     1     2 Chert    Yellow  0.61   14.6  RetF         0
 3 J     B          1     1     3 Chert    Dk Gr…  3.81   29.6  Core         0
 4 J     B          1     1     4 Chert    Grey    0.13    5.83 RetFrag      0
 5 J     B          1     1     5 Chert    Grey    0.05    7.07 Flake        0
 6 J     B          1     1     6 Chert    Lt Br…  0.580  11.1  Core        NA
 7 J     B          1     1     7 Chert    Dk Br…  0.03    5.72 Flake        0
 8 J     B          1     1     8 Chert    Cream   0.02    8.37 FFrag        0
 9 J     B          1     1     9 Chert    Grey    0.21   10.7  Flake-b      0
10 J     B          1     1    10 Chert    Grey    0.25   14.3  Flake        0
# … with 9,742 more rows, and 37 more variables: Cortype <chr>, Initiat <chr>,
#   Breaks <chr>, Noseg <dbl>, Platwid <dbl>, Plat <chr>, Focal <lgl>,
#   Overhang <chr>, NoDS <dbl>, NoPS <dbl>, Rtch <chr>, Plat_2 <chr>,
#   Focal_2 <lgl>, Overhang_2 <chr>, NoDS_2 <dbl>, NoPS_2 <dbl>, Rtch_2 <chr>,
#   RetOri <chr>, Retype <chr>, Retloc <chr>, Retlen <dbl>, Retdep <dbl>,
#   Portion <chr>, Heat <dbl>, EdgeDam <dbl>, Weathering <dbl>, Corerot <dbl>,
#   RetScNo <dbl>, Term <chr>, Janus <lgl>, Recycled <lgl>, Redirect <lgl>,
#   Width <dbl>, Thick <dbl>, Platthic <dbl>, area <dbl>, elongation <dbl>
```
…
.left-code-dplyr3-auto[

```r
# `mutate` helps us
# change columns
j_data %>%  
# create a new column
* mutate(plat_area = Platwid * Platthic)
```
]
 
.right-output-dplyr3-auto[

```
# A tibble: 9,752 x 49
   Site  Square  Spit Group Artno Material Colour Weight Length Artclas Cortex
   <chr> <chr>  <dbl> <dbl> <dbl> <chr>    <chr>   <dbl>  <dbl> <chr>    <dbl>
 1 J     B          1     1     1 Chert    Brown   1.83   22.0  Flake        0
 2 J     B          1     1     2 Chert    Yellow  0.61   14.6  RetF         0
 3 J     B          1     1     3 Chert    Dk Gr…  3.81   29.6  Core         0
 4 J     B          1     1     4 Chert    Grey    0.13    5.83 RetFrag      0
 5 J     B          1     1     5 Chert    Grey    0.05    7.07 Flake        0
 6 J     B          1     1     6 Chert    Lt Br…  0.580  11.1  Core        NA
 7 J     B          1     1     7 Chert    Dk Br…  0.03    5.72 Flake        0
 8 J     B          1     1     8 Chert    Cream   0.02    8.37 FFrag        0
 9 J     B          1     1     9 Chert    Grey    0.21   10.7  Flake-b      0
10 J     B          1     1    10 Chert    Grey    0.25   14.3  Flake        0
# … with 9,742 more rows, and 38 more variables: Cortype <chr>, Initiat <chr>,
#   Breaks <chr>, Noseg <dbl>, Platwid <dbl>, Plat <chr>, Focal <lgl>,
#   Overhang <chr>, NoDS <dbl>, NoPS <dbl>, Rtch <chr>, Plat_2 <chr>,
#   Focal_2 <lgl>, Overhang_2 <chr>, NoDS_2 <dbl>, NoPS_2 <dbl>, Rtch_2 <chr>,
#   RetOri <chr>, Retype <chr>, Retloc <chr>, Retlen <dbl>, Retdep <dbl>,
#   Portion <chr>, Heat <dbl>, EdgeDam <dbl>, Weathering <dbl>, Corerot <dbl>,
#   RetScNo <dbl>, Term <chr>, Janus <lgl>, Recycled <lgl>, Redirect <lgl>,
#   Width <dbl>, Thick <dbl>, Platthic <dbl>, area <dbl>, elongation <dbl>,
#   plat_area <dbl>
```
…
.right-output-dplyr3-auto[

```
# A tibble: 9,752 x 49
   Site  Square  Spit Group Artno Material Colour Weight Length Artclas Cortex
   <chr> <chr>  <dbl> <dbl> <dbl> <chr>    <chr>   <dbl>  <dbl> <chr>    <dbl>
 1 J     B          1     1     1 Chert    Brown   1.83   22.0  Flake        0
 2 J     B          1     1     2 Chert    Yellow  0.61   14.6  RetF         0
 3 J     B          1     1     3 Chert    Dark …  3.81   29.6  Core         0
 4 J     B          1     1     4 Chert    Grey    0.13    5.83 RetFrag      0
 5 J     B          1     1     5 Chert    Grey    0.05    7.07 Flake        0
 6 J     B          1     1     6 Chert    Light…  0.580  11.1  Core        NA
 7 J     B          1     1     7 Chert    Dk Br…  0.03    5.72 Flake        0
 8 J     B          1     1     8 Chert    Cream   0.02    8.37 FFrag        0
 9 J     B          1     1     9 Chert    Grey    0.21   10.7  Flake-b      0
10 J     B          1     1    10 Chert    Grey    0.25   14.3  Flake        0
# … with 9,742 more rows, and 38 more variables: Cortype <chr>, Initiat <chr>,
#   Breaks <chr>, Noseg <dbl>, Platwid <dbl>, Plat <chr>, Focal <lgl>,
#   Overhang <chr>, NoDS <dbl>, NoPS <dbl>, Rtch <chr>, Plat_2 <chr>,
#   Focal_2 <lgl>, Overhang_2 <chr>, NoDS_2 <dbl>, NoPS_2 <dbl>, Rtch_2 <chr>,
#   RetOri <chr>, Retype <chr>, Retloc <chr>, Retlen <dbl>, Retdep <dbl>,
#   Portion <chr>, Heat <dbl>, EdgeDam <dbl>, Weathering <dbl>, Corerot <dbl>,
#   RetScNo <dbl>, Term <chr>, Janus <lgl>, Recycled <lgl>, Redirect <lgl>,
#   Width <dbl>, Thick <dbl>, Platthic <dbl>, area <dbl>, elongation <dbl>,
#   plat_area <dbl>
```
…
.right-output-dplyr3-auto[

```
# A tibble: 9,752 x 49
   Site  Square  Spit Group Artno Material Colour Weight Length[,1] Artclas
   <chr> <chr>  <dbl> <dbl> <dbl> <chr>    <chr>   <dbl>      <dbl> <chr>  
 1 J     B          1     1     1 Chert    Brown   1.83      1.80   Flake  
 2 J     B          1     1     2 Chert    Yellow  0.61      0.629  RetF   
 3 J     B          1     1     3 Chert    Dark …  3.81      3.00   Core   
 4 J     B          1     1     4 Chert    Grey    0.13     -0.755  RetFrag
 5 J     B          1     1     5 Chert    Grey    0.05     -0.559  Flake  
 6 J     B          1     1     6 Chert    Light…  0.580     0.0821 Core   
 7 J     B          1     1     7 Chert    Dk Br…  0.03     -0.772  Flake  
 8 J     B          1     1     8 Chert    Cream   0.02     -0.354  FFrag  
 9 J     B          1     1     9 Chert    Grey    0.21      0.0142 Flake-b
10 J     B          1     1    10 Chert    Grey    0.25      0.578  Flake  
# … with 9,742 more rows, and 39 more variables: Cortex <dbl>, Cortype <chr>,
#   Initiat <chr>, Breaks <chr>, Noseg <dbl>, Platwid <dbl>, Plat <chr>,
#   Focal <lgl>, Overhang <chr>, NoDS <dbl>, NoPS <dbl>, Rtch <chr>,
#   Plat_2 <chr>, Focal_2 <lgl>, Overhang_2 <chr>, NoDS_2 <dbl>, NoPS_2 <dbl>,
#   Rtch_2 <chr>, RetOri <chr>, Retype <chr>, Retloc <chr>, Retlen <dbl>,
#   Retdep <dbl>, Portion <chr>, Heat <dbl>, EdgeDam <dbl>, Weathering <dbl>,
#   Corerot <dbl>, RetScNo <dbl>, Term <chr>, Janus <lgl>, Recycled <lgl>,
#   Redirect <lgl>, Width[,1] <dbl>, Thick <dbl>, Platthic <dbl>, area <dbl>,
#   elongation <dbl>, plat_area <dbl>
```
…
.right-output-dplyr3-auto[

```
# A tibble: 9,752 x 49
   Site  Square  Spit Group Artno Material Colour Weight Length[,1] Artclas
   <chr> <chr>  <dbl> <dbl> <dbl> <fct>    <chr>   <dbl>      <dbl> <chr>  
 1 J     B          1     1     1 Chert    Brown   1.83      1.80   Flake  
 2 J     B          1     1     2 Chert    Yellow  0.61      0.629  RetF   
 3 J     B          1     1     3 Chert    Dark …  3.81      3.00   Core   
 4 J     B          1     1     4 Chert    Grey    0.13     -0.755  RetFrag
 5 J     B          1     1     5 Chert    Grey    0.05     -0.559  Flake  
 6 J     B          1     1     6 Chert    Light…  0.580     0.0821 Core   
 7 J     B          1     1     7 Chert    Dk Br…  0.03     -0.772  Flake  
 8 J     B          1     1     8 Chert    Cream   0.02     -0.354  FFrag  
 9 J     B          1     1     9 Chert    Grey    0.21      0.0142 Flake-b
10 J     B          1     1    10 Chert    Grey    0.25      0.578  Flake  
# … with 9,742 more rows, and 39 more variables: Cortex <dbl>, Cortype <chr>,
#   Initiat <chr>, Breaks <chr>, Noseg <dbl>, Platwid <dbl>, Plat <chr>,
#   Focal <lgl>, Overhang <chr>, NoDS <dbl>, NoPS <dbl>, Rtch <chr>,
#   Plat_2 <chr>, Focal_2 <lgl>, Overhang_2 <chr>, NoDS_2 <dbl>, NoPS_2 <dbl>,
#   Rtch_2 <chr>, RetOri <chr>, Retype <chr>, Retloc <chr>, Retlen <dbl>,
#   Retdep <dbl>, Portion <chr>, Heat <dbl>, EdgeDam <dbl>, Weathering <dbl>,
#   Corerot <dbl>, RetScNo <dbl>, Term <chr>, Janus <lgl>, Recycled <lgl>,
#   Redirect <lgl>, Width[,1] <dbl>, Thick <dbl>, Platthic <dbl>, area <dbl>,
#   elongation <dbl>, plat_area <dbl>
```
…
